File set NK
╒═════╤══════════════╤══════════════╤══════════════╤══════════════╕
│   n │ h1 avg err   │ h2 avg err   │ h1 max err   │ h2 max err   │
╞═════╪══════════════╪══════════════╪══════════════╪══════════════╡
│   4 │ 2.72 %       │ 2.25 %       │ 43.85 %      │ 38.46 %      │
╘═════╧══════════════╧══════════════╧══════════════╧══════════════╛
File set ZKC
╒═════╤══════════════╤══════════════╤══════════════╤══════════════╕
│   n │ h1 avg err   │ h2 avg err   │ h1 max err   │ h2 max err   │
╞═════╪══════════════╪══════════════╪══════════════╪══════════════╡
│   4 │ 12.94 %      │ 12.43 %      │ 49.03 %      │ 43.09 %      │
╘═════╧══════════════╧══════════════╧══════════════╧══════════════╛
File set ZKW
╒═════╤══════════════╤══════════════╤══════════════╤══════════════╕
│   n │ h1 avg err   │ h2 avg err   │ h1 max err   │ h2 max err   │
╞═════╪══════════════╪══════════════╪══════════════╪══════════════╡
│   4 │ 36.21 %      │ 0.1 %        │ 99.42 %      │ 14.32 %      │
╘═════╧══════════════╧══════════════╧══════════════╧══════════════╛
File set NK
╒═════╤══════════════╤══════════════╤══════════════╤══════════════╕
│   n │ h1 avg err   │ h2 avg err   │ h1 max err   │ h2 max err   │
╞═════╪══════════════╪══════════════╪══════════════╪══════════════╡
│   4 │ 2.72 %       │ 2.25 %       │ 43.85 %      │ 38.46 %      │
├─────┼──────────────┼──────────────┼──────────────┼──────────────┤
│  10 │ 3.47 %       │ 3.1 %        │ 73.06 %      │ 31.39 %      │
╘═════╧══════════════╧══════════════╧══════════════╧══════════════╛
File set ZKC
╒═════╤══════════════╤══════════════╤══════════════╤══════════════╕
│   n │ h1 avg err   │ h2 avg err   │ h1 max err   │ h2 max err   │
╞═════╪══════════════╪══════════════╪══════════════╪══════════════╡
│   4 │ 12.94 %      │ 12.43 %      │ 49.03 %      │ 43.09 %      │
├─────┼──────────────┼──────────────┼──────────────┼──────────────┤
│  10 │ 9.02 %       │ 9.02 %       │ 24.96 %      │ 24.96 %      │
╘═════╧══════════════╧══════════════╧══════════════╧══════════════╛
File set ZKW
╒═════╤══════════════╤══════════════╤══════════════╤══════════════╕
│   n │ h1 avg err   │ h2 avg err   │ h1 max err   │ h2 max err   │
╞═════╪══════════════╪══════════════╪══════════════╪══════════════╡
│   4 │ 36.21 %      │ 0.1 %        │ 99.42 %      │ 14.32 %      │
├─────┼──────────────┼──────────────┼──────────────┼──────────────┤
│  10 │ 29.5 %       │ 1.21 %       │ 99.41 %      │ 21.34 %      │
╘═════╧══════════════╧══════════════╧══════════════╧══════════════╛
File set NK
╒═════╤══════════════╤══════════════╤══════════════╤══════════════╕
│   n │ h1 avg err   │ h2 avg err   │ h1 max err   │ h2 max err   │
╞═════╪══════════════╪══════════════╪══════════════╪══════════════╡
│   4 │ 2.72 %       │ 2.25 %       │ 43.85 %      │ 38.46 %      │
├─────┼──────────────┼──────────────┼──────────────┼──────────────┤
│  10 │ 3.47 %       │ 3.1 %        │ 73.06 %      │ 31.39 %      │
├─────┼──────────────┼──────────────┼──────────────┼──────────────┤
│  15 │ 2.55 %       │ 2.51 %       │ 28.91 %      │ 28.91 %      │
╘═════╧══════════════╧══════════════╧══════════════╧══════════════╛
File set ZKC
╒═════╤══════════════╤══════════════╤══════════════╤══════════════╕
│   n │ h1 avg err   │ h2 avg err   │ h1 max err   │ h2 max err   │
╞═════╪══════════════╪══════════════╪══════════════╪══════════════╡
│   4 │ 12.94 %      │ 12.43 %      │ 49.03 %      │ 43.09 %      │
├─────┼──────────────┼──────────────┼──────────────┼──────────────┤
│  10 │ 9.02 %       │ 9.02 %       │ 24.96 %      │ 24.96 %      │
├─────┼──────────────┼──────────────┼──────────────┼──────────────┤
│  15 │ 6.14 %       │ 6.14 %       │ 15.49 %      │ 15.49 %      │
╘═════╧══════════════╧══════════════╧══════════════╧══════════════╛
File set ZKW
╒═════╤══════════════╤══════════════╤══════════════╤══════════════╕
│   n │ h1 avg err   │ h2 avg err   │ h1 max err   │ h2 max err   │
╞═════╪══════════════╪══════════════╪══════════════╪══════════════╡
│   4 │ 36.21 %      │ 0.1 %        │ 99.42 %      │ 14.32 %      │
├─────┼──────────────┼──────────────┼──────────────┼──────────────┤
│  10 │ 29.5 %       │ 1.21 %       │ 99.41 %      │ 21.34 %      │
├─────┼──────────────┼──────────────┼──────────────┼──────────────┤
│  15 │ 26.83 %      │ 1.57 %       │ 96.19 %      │ 21.98 %      │
╘═════╧══════════════╧══════════════╧══════════════╧══════════════╛
File set NK
╒═════╤══════════════╤══════════════╤══════════════╤══════════════╕
│   n │ h1 avg err   │ h2 avg err   │ h1 max err   │ h2 max err   │
╞═════╪══════════════╪══════════════╪══════════════╪══════════════╡
│   4 │ 2.72 %       │ 2.25 %       │ 43.85 %      │ 38.46 %      │
├─────┼──────────────┼──────────────┼──────────────┼──────────────┤
│  10 │ 3.47 %       │ 3.1 %        │ 73.06 %      │ 31.39 %      │
├─────┼──────────────┼──────────────┼──────────────┼──────────────┤
│  15 │ 2.55 %       │ 2.51 %       │ 28.91 %      │ 28.91 %      │
├─────┼──────────────┼──────────────┼──────────────┼──────────────┤
│  20 │ 2.28 %       │ 2.2 %        │ 43.01 %      │ 29.32 %      │
╘═════╧══════════════╧══════════════╧══════════════╧══════════════╛
File set ZKC
╒═════╤══════════════╤══════════════╤══════════════╤══════════════╕
│   n │ h1 avg err   │ h2 avg err   │ h1 max err   │ h2 max err   │
╞═════╪══════════════╪══════════════╪══════════════╪══════════════╡
│   4 │ 12.94 %      │ 12.43 %      │ 49.03 %      │ 43.09 %      │
├─────┼──────────────┼──────────────┼──────────────┼──────────────┤
│  10 │ 9.02 %       │ 9.02 %       │ 24.96 %      │ 24.96 %      │
├─────┼──────────────┼──────────────┼──────────────┼──────────────┤
│  15 │ 6.14 %       │ 6.14 %       │ 15.49 %      │ 15.49 %      │
├─────┼──────────────┼──────────────┼──────────────┼──────────────┤
│  20 │ 5.01 %       │ 5.01 %       │ 11.17 %      │ 11.17 %      │
╘═════╧══════════════╧══════════════╧══════════════╧══════════════╛
File set ZKW
╒═════╤══════════════╤══════════════╤══════════════╤══════════════╕
│   n │ h1 avg err   │ h2 avg err   │ h1 max err   │ h2 max err   │
╞═════╪══════════════╪══════════════╪══════════════╪══════════════╡
│   4 │ 36.21 %      │ 0.1 %        │ 99.42 %      │ 14.32 %      │
├─────┼──────────────┼──────────────┼──────────────┼──────────────┤
│  10 │ 29.5 %       │ 1.21 %       │ 99.41 %      │ 21.34 %      │
├─────┼──────────────┼──────────────┼──────────────┼──────────────┤
│  15 │ 26.83 %      │ 1.57 %       │ 96.19 %      │ 21.98 %      │
├─────┼──────────────┼──────────────┼──────────────┼──────────────┤
│  20 │ 26.67 %      │ 1.59 %       │ 89.66 %      │ 13.22 %      │
╘═════╧══════════════╧══════════════╧══════════════╧══════════════╛
File set NK
╒═════╤══════════════╤══════════════╤══════════════╤══════════════╕
│   n │ h1 avg err   │ h2 avg err   │ h1 max err   │ h2 max err   │
╞═════╪══════════════╪══════════════╪══════════════╪══════════════╡
│   4 │ 2.72 %       │ 2.25 %       │ 43.85 %      │ 38.46 %      │
├─────┼──────────────┼──────────────┼──────────────┼──────────────┤
│  10 │ 3.47 %       │ 3.1 %        │ 73.06 %      │ 31.39 %      │
├─────┼──────────────┼──────────────┼──────────────┼──────────────┤
│  15 │ 2.55 %       │ 2.51 %       │ 28.91 %      │ 28.91 %      │
├─────┼──────────────┼──────────────┼──────────────┼──────────────┤
│  20 │ 2.28 %       │ 2.2 %        │ 43.01 %      │ 29.32 %      │
├─────┼──────────────┼──────────────┼──────────────┼──────────────┤
│  22 │ 2.51 %       │ 2.36 %       │ 40.38 %      │ 32.9 %       │
╘═════╧══════════════╧══════════════╧══════════════╧══════════════╛
File set ZKC
╒═════╤══════════════╤══════════════╤══════════════╤══════════════╕
│   n │ h1 avg err   │ h2 avg err   │ h1 max err   │ h2 max err   │
╞═════╪══════════════╪══════════════╪══════════════╪══════════════╡
│   4 │ 12.94 %      │ 12.43 %      │ 49.03 %      │ 43.09 %      │
├─────┼──────────────┼──────────────┼──────────────┼──────────────┤
│  10 │ 9.02 %       │ 9.02 %       │ 24.96 %      │ 24.96 %      │
├─────┼──────────────┼──────────────┼──────────────┼──────────────┤
│  15 │ 6.14 %       │ 6.14 %       │ 15.49 %      │ 15.49 %      │
├─────┼──────────────┼──────────────┼──────────────┼──────────────┤
│  20 │ 5.01 %       │ 5.01 %       │ 11.17 %      │ 11.17 %      │
├─────┼──────────────┼──────────────┼──────────────┼──────────────┤
│  22 │ 4.29 %       │ 4.29 %       │ 10.23 %      │ 10.23 %      │
╘═════╧══════════════╧══════════════╧══════════════╧══════════════╛
File set ZKW
╒═════╤══════════════╤══════════════╤══════════════╤══════════════╕
│   n │ h1 avg err   │ h2 avg err   │ h1 max err   │ h2 max err   │
╞═════╪══════════════╪══════════════╪══════════════╪══════════════╡
│   4 │ 36.21 %      │ 0.1 %        │ 99.42 %      │ 14.32 %      │
├─────┼──────────────┼──────────────┼──────────────┼──────────────┤
│  10 │ 29.5 %       │ 1.21 %       │ 99.41 %      │ 21.34 %      │
├─────┼──────────────┼──────────────┼──────────────┼──────────────┤
│  15 │ 26.83 %      │ 1.57 %       │ 96.19 %      │ 21.98 %      │
├─────┼──────────────┼──────────────┼──────────────┼──────────────┤
│  20 │ 26.67 %      │ 1.59 %       │ 89.66 %      │ 13.22 %      │
├─────┼──────────────┼──────────────┼──────────────┼──────────────┤
│  22 │ 31.08 %      │ 2.09 %       │ 99.0 %       │ 17.31 %      │
╘═════╧══════════════╧══════════════╧══════════════╧══════════════╛
