brute force
╒════════════════╤══════════╤══════════╤═════════╤═════════╤═════════╕
│ Max W, Max P   │   r=0.01 │   r=0.03 │   r=0.1 │   r=0.3 │   r=0.9 │
╞════════════════╪══════════╪══════════╪═════════╪═════════╪═════════╡
│ 100, 1000      │    38.76 │    38.42 │   39.37 │   39.24 │   41.01 │
╘════════════════╧══════════╧══════════╧═════════╧═════════╧═════════╛
brute force
╒════════════════╤══════════╤══════════╤═════════╤═════════╤═════════╕
│ Max W, Max P   │   r=0.01 │   r=0.03 │   r=0.1 │   r=0.3 │   r=0.9 │
╞════════════════╪══════════╪══════════╪═════════╪═════════╪═════════╡
│ 100, 1000      │    38.76 │    38.42 │   39.37 │   39.24 │   41.01 │
├────────────────┼──────────┼──────────┼─────────┼─────────┼─────────┤
│ 1000, 1000     │    46.95 │    48.34 │   49.14 │   45.21 │   41.33 │
╘════════════════╧══════════╧══════════╧═════════╧═════════╧═════════╛
brute force
╒════════════════╤══════════╤══════════╤═════════╤═════════╤═════════╕
│ Max W, Max P   │   r=0.01 │   r=0.03 │   r=0.1 │   r=0.3 │   r=0.9 │
╞════════════════╪══════════╪══════════╪═════════╪═════════╪═════════╡
│ 100, 1000      │    38.76 │    38.42 │   39.37 │   39.24 │   41.01 │
├────────────────┼──────────┼──────────┼─────────┼─────────┼─────────┤
│ 1000, 1000     │    46.95 │    48.34 │   49.14 │   45.21 │   41.33 │
├────────────────┼──────────┼──────────┼─────────┼─────────┼─────────┤
│ 10000, 1000    │    39.28 │    39.03 │   39.43 │   39.34 │   41.14 │
╘════════════════╧══════════╧══════════╧═════════╧═════════╧═════════╛
brute force
╒════════════════╤══════════╤══════════╤═════════╤═════════╤═════════╕
│ Max W, Max P   │   r=0.01 │   r=0.03 │   r=0.1 │   r=0.3 │   r=0.9 │
╞════════════════╪══════════╪══════════╪═════════╪═════════╪═════════╡
│ 100, 1000      │    38.76 │    38.42 │   39.37 │   39.24 │   41.01 │
├────────────────┼──────────┼──────────┼─────────┼─────────┼─────────┤
│ 1000, 1000     │    46.95 │    48.34 │   49.14 │   45.21 │   41.33 │
├────────────────┼──────────┼──────────┼─────────┼─────────┼─────────┤
│ 10000, 1000    │    39.28 │    39.03 │   39.43 │   39.34 │   41.14 │
├────────────────┼──────────┼──────────┼─────────┼─────────┼─────────┤
│ 100, 100       │    38.81 │    39.16 │   39.55 │   39.6  │   41.24 │
╘════════════════╧══════════╧══════════╧═════════╧═════════╧═════════╛
brute force
╒════════════════╤══════════╤══════════╤═════════╤═════════╤═════════╕
│ Max W, Max P   │   r=0.01 │   r=0.03 │   r=0.1 │   r=0.3 │   r=0.9 │
╞════════════════╪══════════╪══════════╪═════════╪═════════╪═════════╡
│ 100, 1000      │    38.76 │    38.42 │   39.37 │   39.24 │   41.01 │
├────────────────┼──────────┼──────────┼─────────┼─────────┼─────────┤
│ 1000, 1000     │    46.95 │    48.34 │   49.14 │   45.21 │   41.33 │
├────────────────┼──────────┼──────────┼─────────┼─────────┼─────────┤
│ 10000, 1000    │    39.28 │    39.03 │   39.43 │   39.34 │   41.14 │
├────────────────┼──────────┼──────────┼─────────┼─────────┼─────────┤
│ 100, 100       │    38.81 │    39.16 │   39.55 │   39.6  │   41.24 │
├────────────────┼──────────┼──────────┼─────────┼─────────┼─────────┤
│ 100, 1000      │    39.09 │    39.32 │   39.97 │   40.13 │   41.07 │
╘════════════════╧══════════╧══════════╧═════════╧═════════╧═════════╛
brute force
╒════════════════╤══════════╤══════════╤═════════╤═════════╤═════════╕
│ Max W, Max P   │   r=0.01 │   r=0.03 │   r=0.1 │   r=0.3 │   r=0.9 │
╞════════════════╪══════════╪══════════╪═════════╪═════════╪═════════╡
│ 100, 1000      │    38.76 │    38.42 │   39.37 │   39.24 │   41.01 │
├────────────────┼──────────┼──────────┼─────────┼─────────┼─────────┤
│ 1000, 1000     │    46.95 │    48.34 │   49.14 │   45.21 │   41.33 │
├────────────────┼──────────┼──────────┼─────────┼─────────┼─────────┤
│ 10000, 1000    │    39.28 │    39.03 │   39.43 │   39.34 │   41.14 │
├────────────────┼──────────┼──────────┼─────────┼─────────┼─────────┤
│ 100, 100       │    38.81 │    39.16 │   39.55 │   39.6  │   41.24 │
├────────────────┼──────────┼──────────┼─────────┼─────────┼─────────┤
│ 100, 1000      │    39.09 │    39.32 │   39.97 │   40.13 │   41.07 │
├────────────────┼──────────┼──────────┼─────────┼─────────┼─────────┤
│ 100, 10000     │    40.07 │    39.75 │   41.86 │   40.15 │   41.32 │
╘════════════════╧══════════╧══════════╧═════════╧═════════╧═════════╛
branch method
╒════════════════╤══════════╤══════════╤═════════╤═════════╤═════════╕
│ Max W, Max P   │   r=0.01 │   r=0.03 │   r=0.1 │   r=0.3 │   r=0.9 │
╞════════════════╪══════════╪══════════╪═════════╪═════════╪═════════╡
│ 100, 1000      │     0.04 │     0.07 │    0.35 │    2.03 │    0.11 │
╘════════════════╧══════════╧══════════╧═════════╧═════════╧═════════╛
branch method
╒════════════════╤══════════╤══════════╤═════════╤═════════╤═════════╕
│ Max W, Max P   │   r=0.01 │   r=0.03 │   r=0.1 │   r=0.3 │   r=0.9 │
╞════════════════╪══════════╪══════════╪═════════╪═════════╪═════════╡
│ 100, 1000      │     0.04 │     0.07 │    0.35 │    2.03 │    0.11 │
├────────────────┼──────────┼──────────┼─────────┼─────────┼─────────┤
│ 1000, 1000     │     0.04 │     0.08 │    0.35 │    2.09 │    0.11 │
╘════════════════╧══════════╧══════════╧═════════╧═════════╧═════════╛
branch method
╒════════════════╤══════════╤══════════╤═════════╤═════════╤═════════╕
│ Max W, Max P   │   r=0.01 │   r=0.03 │   r=0.1 │   r=0.3 │   r=0.9 │
╞════════════════╪══════════╪══════════╪═════════╪═════════╪═════════╡
│ 100, 1000      │     0.04 │     0.07 │    0.35 │    2.03 │    0.11 │
├────────────────┼──────────┼──────────┼─────────┼─────────┼─────────┤
│ 1000, 1000     │     0.04 │     0.08 │    0.35 │    2.09 │    0.11 │
├────────────────┼──────────┼──────────┼─────────┼─────────┼─────────┤
│ 10000, 1000    │     0.04 │     0.07 │    0.35 │    2.1  │    0.11 │
╘════════════════╧══════════╧══════════╧═════════╧═════════╧═════════╛
branch method
╒════════════════╤══════════╤══════════╤═════════╤═════════╤═════════╕
│ Max W, Max P   │   r=0.01 │   r=0.03 │   r=0.1 │   r=0.3 │   r=0.9 │
╞════════════════╪══════════╪══════════╪═════════╪═════════╪═════════╡
│ 100, 1000      │     0.04 │     0.07 │    0.35 │    2.03 │    0.11 │
├────────────────┼──────────┼──────────┼─────────┼─────────┼─────────┤
│ 1000, 1000     │     0.04 │     0.08 │    0.35 │    2.09 │    0.11 │
├────────────────┼──────────┼──────────┼─────────┼─────────┼─────────┤
│ 10000, 1000    │     0.04 │     0.07 │    0.35 │    2.1  │    0.11 │
├────────────────┼──────────┼──────────┼─────────┼─────────┼─────────┤
│ 100, 100       │     0.04 │     0.07 │    0.35 │    2.07 │    0.11 │
╘════════════════╧══════════╧══════════╧═════════╧═════════╧═════════╛
branch method
╒════════════════╤══════════╤══════════╤═════════╤═════════╤═════════╕
│ Max W, Max P   │   r=0.01 │   r=0.03 │   r=0.1 │   r=0.3 │   r=0.9 │
╞════════════════╪══════════╪══════════╪═════════╪═════════╪═════════╡
│ 100, 1000      │     0.04 │     0.07 │    0.35 │    2.03 │    0.11 │
├────────────────┼──────────┼──────────┼─────────┼─────────┼─────────┤
│ 1000, 1000     │     0.04 │     0.08 │    0.35 │    2.09 │    0.11 │
├────────────────┼──────────┼──────────┼─────────┼─────────┼─────────┤
│ 10000, 1000    │     0.04 │     0.07 │    0.35 │    2.1  │    0.11 │
├────────────────┼──────────┼──────────┼─────────┼─────────┼─────────┤
│ 100, 100       │     0.04 │     0.07 │    0.35 │    2.07 │    0.11 │
├────────────────┼──────────┼──────────┼─────────┼─────────┼─────────┤
│ 100, 1000      │     0.04 │     0.08 │    0.34 │    2.09 │    0.11 │
╘════════════════╧══════════╧══════════╧═════════╧═════════╧═════════╛
branch method
╒════════════════╤══════════╤══════════╤═════════╤═════════╤═════════╕
│ Max W, Max P   │   r=0.01 │   r=0.03 │   r=0.1 │   r=0.3 │   r=0.9 │
╞════════════════╪══════════╪══════════╪═════════╪═════════╪═════════╡
│ 100, 1000      │     0.04 │     0.07 │    0.35 │    2.03 │    0.11 │
├────────────────┼──────────┼──────────┼─────────┼─────────┼─────────┤
│ 1000, 1000     │     0.04 │     0.08 │    0.35 │    2.09 │    0.11 │
├────────────────┼──────────┼──────────┼─────────┼─────────┼─────────┤
│ 10000, 1000    │     0.04 │     0.07 │    0.35 │    2.1  │    0.11 │
├────────────────┼──────────┼──────────┼─────────┼─────────┼─────────┤
│ 100, 100       │     0.04 │     0.07 │    0.35 │    2.07 │    0.11 │
├────────────────┼──────────┼──────────┼─────────┼─────────┼─────────┤
│ 100, 1000      │     0.04 │     0.08 │    0.34 │    2.09 │    0.11 │
├────────────────┼──────────┼──────────┼─────────┼─────────┼─────────┤
│ 100, 10000     │     0.04 │     0.07 │    0.35 │    2.12 │    0.11 │
╘════════════════╧══════════╧══════════╧═════════╧═════════╧═════════╛
dynamic programming
╒════════════════╤══════════╤══════════╤═════════╤═════════╤═════════╕
│ Max W, Max P   │   r=0.01 │   r=0.03 │   r=0.1 │   r=0.3 │   r=0.9 │
╞════════════════╪══════════╪══════════╪═════════╪═════════╪═════════╡
│ 100, 1000      │     1.23 │     1.24 │    1.75 │   10.74 │   30.76 │
╘════════════════╧══════════╧══════════╧═════════╧═════════╧═════════╛
dynamic programming
╒════════════════╤══════════╤══════════╤═════════╤═════════╤═════════╕
│ Max W, Max P   │   r=0.01 │   r=0.03 │   r=0.1 │   r=0.3 │   r=0.9 │
╞════════════════╪══════════╪══════════╪═════════╪═════════╪═════════╡
│ 100, 1000      │     1.23 │     1.24 │    1.75 │   10.74 │   30.76 │
├────────────────┼──────────┼──────────┼─────────┼─────────┼─────────┤
│ 1000, 1000     │     1.03 │     1.13 │    1.6  │   10.92 │   31.15 │
╘════════════════╧══════════╧══════════╧═════════╧═════════╧═════════╛
dynamic programming
╒════════════════╤══════════╤══════════╤═════════╤═════════╤═════════╕
│ Max W, Max P   │   r=0.01 │   r=0.03 │   r=0.1 │   r=0.3 │   r=0.9 │
╞════════════════╪══════════╪══════════╪═════════╪═════════╪═════════╡
│ 100, 1000      │     1.23 │     1.24 │    1.75 │   10.74 │   30.76 │
├────────────────┼──────────┼──────────┼─────────┼─────────┼─────────┤
│ 1000, 1000     │     1.03 │     1.13 │    1.6  │   10.92 │   31.15 │
├────────────────┼──────────┼──────────┼─────────┼─────────┼─────────┤
│ 10000, 1000    │     1.07 │     1.13 │    1.66 │   11.09 │   31.11 │
╘════════════════╧══════════╧══════════╧═════════╧═════════╧═════════╛
dynamic programming
╒════════════════╤══════════╤══════════╤═════════╤═════════╤═════════╕
│ Max W, Max P   │   r=0.01 │   r=0.03 │   r=0.1 │   r=0.3 │   r=0.9 │
╞════════════════╪══════════╪══════════╪═════════╪═════════╪═════════╡
│ 100, 1000      │     1.23 │     1.24 │    1.75 │   10.74 │   30.76 │
├────────────────┼──────────┼──────────┼─────────┼─────────┼─────────┤
│ 1000, 1000     │     1.03 │     1.13 │    1.6  │   10.92 │   31.15 │
├────────────────┼──────────┼──────────┼─────────┼─────────┼─────────┤
│ 10000, 1000    │     1.07 │     1.13 │    1.66 │   11.09 │   31.11 │
├────────────────┼──────────┼──────────┼─────────┼─────────┼─────────┤
│ 100, 100       │     0.14 │     0.2  │    0.7  │    3.76 │    6.72 │
╘════════════════╧══════════╧══════════╧═════════╧═════════╧═════════╛
dynamic programming
╒════════════════╤══════════╤══════════╤═════════╤═════════╤═════════╕
│ Max W, Max P   │   r=0.01 │   r=0.03 │   r=0.1 │   r=0.3 │   r=0.9 │
╞════════════════╪══════════╪══════════╪═════════╪═════════╪═════════╡
│ 100, 1000      │     1.23 │     1.24 │    1.75 │   10.74 │   30.76 │
├────────────────┼──────────┼──────────┼─────────┼─────────┼─────────┤
│ 1000, 1000     │     1.03 │     1.13 │    1.6  │   10.92 │   31.15 │
├────────────────┼──────────┼──────────┼─────────┼─────────┼─────────┤
│ 10000, 1000    │     1.07 │     1.13 │    1.66 │   11.09 │   31.11 │
├────────────────┼──────────┼──────────┼─────────┼─────────┼─────────┤
│ 100, 100       │     0.14 │     0.2  │    0.7  │    3.76 │    6.72 │
├────────────────┼──────────┼──────────┼─────────┼─────────┼─────────┤
│ 100, 1000      │     1.07 │     1.12 │    1.6  │   11.13 │   31.19 │
╘════════════════╧══════════╧══════════╧═════════╧═════════╧═════════╛
dynamic programming
╒════════════════╤══════════╤══════════╤═════════╤═════════╤═════════╕
│ Max W, Max P   │   r=0.01 │   r=0.03 │   r=0.1 │   r=0.3 │   r=0.9 │
╞════════════════╪══════════╪══════════╪═════════╪═════════╪═════════╡
│ 100, 1000      │     1.23 │     1.24 │    1.75 │   10.74 │   30.76 │
├────────────────┼──────────┼──────────┼─────────┼─────────┼─────────┤
│ 1000, 1000     │     1.03 │     1.13 │    1.6  │   10.92 │   31.15 │
├────────────────┼──────────┼──────────┼─────────┼─────────┼─────────┤
│ 10000, 1000    │     1.07 │     1.13 │    1.66 │   11.09 │   31.11 │
├────────────────┼──────────┼──────────┼─────────┼─────────┼─────────┤
│ 100, 100       │     0.14 │     0.2  │    0.7  │    3.76 │    6.72 │
├────────────────┼──────────┼──────────┼─────────┼─────────┼─────────┤
│ 100, 1000      │     1.07 │     1.12 │    1.6  │   11.13 │   31.19 │
├────────────────┼──────────┼──────────┼─────────┼─────────┼─────────┤
│ 100, 10000     │    15.35 │    15.38 │   15.54 │   28.15 │   75.28 │
╘════════════════╧══════════╧══════════╧═════════╧═════════╧═════════╛
Greedy heuristic
╒════════════════╤══════════╤══════════╤═════════╤═════════╤═════════╕
│ Max W, Max P   │   r=0.01 │   r=0.03 │   r=0.1 │   r=0.3 │   r=0.9 │
╞════════════════╪══════════╪══════════╪═════════╪═════════╪═════════╡
│ 100, 1000      │     0.13 │     2.36 │    6.38 │    4.32 │    0.42 │
╘════════════════╧══════════╧══════════╧═════════╧═════════╧═════════╛
Greedy heuristic
╒════════════════╤══════════╤══════════╤═════════╤═════════╤═════════╕
│ Max W, Max P   │   r=0.01 │   r=0.03 │   r=0.1 │   r=0.3 │   r=0.9 │
╞════════════════╪══════════╪══════════╪═════════╪═════════╪═════════╡
│ 100, 1000      │     0.13 │     2.36 │    6.38 │    4.32 │    0.42 │
├────────────────┼──────────┼──────────┼─────────┼─────────┼─────────┤
│ 1000, 1000     │     0.11 │     2.27 │    6.49 │    4.32 │    0.42 │
╘════════════════╧══════════╧══════════╧═════════╧═════════╧═════════╛
Greedy heuristic
╒════════════════╤══════════╤══════════╤═════════╤═════════╤═════════╕
│ Max W, Max P   │   r=0.01 │   r=0.03 │   r=0.1 │   r=0.3 │   r=0.9 │
╞════════════════╪══════════╪══════════╪═════════╪═════════╪═════════╡
│ 100, 1000      │     0.13 │     2.36 │    6.38 │    4.32 │    0.42 │
├────────────────┼──────────┼──────────┼─────────┼─────────┼─────────┤
│ 1000, 1000     │     0.11 │     2.27 │    6.49 │    4.32 │    0.42 │
├────────────────┼──────────┼──────────┼─────────┼─────────┼─────────┤
│ 10000, 1000    │     0.15 │     2.31 │    6.46 │    4.3  │    0.42 │
╘════════════════╧══════════╧══════════╧═════════╧═════════╧═════════╛
Greedy heuristic
╒════════════════╤══════════╤══════════╤═════════╤═════════╤═════════╕
│ Max W, Max P   │   r=0.01 │   r=0.03 │   r=0.1 │   r=0.3 │   r=0.9 │
╞════════════════╪══════════╪══════════╪═════════╪═════════╪═════════╡
│ 100, 1000      │     0.13 │     2.36 │    6.38 │    4.32 │    0.42 │
├────────────────┼──────────┼──────────┼─────────┼─────────┼─────────┤
│ 1000, 1000     │     0.11 │     2.27 │    6.49 │    4.32 │    0.42 │
├────────────────┼──────────┼──────────┼─────────┼─────────┼─────────┤
│ 10000, 1000    │     0.15 │     2.31 │    6.46 │    4.3  │    0.42 │
├────────────────┼──────────┼──────────┼─────────┼─────────┼─────────┤
│ 100, 100       │     0.14 │     2.38 │    6.35 │    4.32 │    0.43 │
╘════════════════╧══════════╧══════════╧═════════╧═════════╧═════════╛
Greedy heuristic
╒════════════════╤══════════╤══════════╤═════════╤═════════╤═════════╕
│ Max W, Max P   │   r=0.01 │   r=0.03 │   r=0.1 │   r=0.3 │   r=0.9 │
╞════════════════╪══════════╪══════════╪═════════╪═════════╪═════════╡
│ 100, 1000      │     0.13 │     2.36 │    6.38 │    4.32 │    0.42 │
├────────────────┼──────────┼──────────┼─────────┼─────────┼─────────┤
│ 1000, 1000     │     0.11 │     2.27 │    6.49 │    4.32 │    0.42 │
├────────────────┼──────────┼──────────┼─────────┼─────────┼─────────┤
│ 10000, 1000    │     0.15 │     2.31 │    6.46 │    4.3  │    0.42 │
├────────────────┼──────────┼──────────┼─────────┼─────────┼─────────┤
│ 100, 100       │     0.14 │     2.38 │    6.35 │    4.32 │    0.43 │
├────────────────┼──────────┼──────────┼─────────┼─────────┼─────────┤
│ 100, 1000      │     0.13 │     2.36 │    6.38 │    4.32 │    0.42 │
╘════════════════╧══════════╧══════════╧═════════╧═════════╧═════════╛
Greedy heuristic
╒════════════════╤══════════╤══════════╤═════════╤═════════╤═════════╕
│ Max W, Max P   │   r=0.01 │   r=0.03 │   r=0.1 │   r=0.3 │   r=0.9 │
╞════════════════╪══════════╪══════════╪═════════╪═════════╪═════════╡
│ 100, 1000      │     0.13 │     2.36 │    6.38 │    4.32 │    0.42 │
├────────────────┼──────────┼──────────┼─────────┼─────────┼─────────┤
│ 1000, 1000     │     0.11 │     2.27 │    6.49 │    4.32 │    0.42 │
├────────────────┼──────────┼──────────┼─────────┼─────────┼─────────┤
│ 10000, 1000    │     0.15 │     2.31 │    6.46 │    4.3  │    0.42 │
├────────────────┼──────────┼──────────┼─────────┼─────────┼─────────┤
│ 100, 100       │     0.14 │     2.38 │    6.35 │    4.32 │    0.43 │
├────────────────┼──────────┼──────────┼─────────┼─────────┼─────────┤
│ 100, 1000      │     0.13 │     2.36 │    6.38 │    4.32 │    0.42 │
├────────────────┼──────────┼──────────┼─────────┼─────────┼─────────┤
│ 100, 10000     │     0.13 │     2.36 │    6.34 │    4.31 │    0.42 │
╘════════════════╧══════════╧══════════╧═════════╧═════════╧═════════╛
