Population size
╒═════╤═══════════╤════════════╤════════════╤════════════╕
│   n │ pop=n*5   │ pop=n*15   │ pop=n*30   │ pop=n*50   │
╞═════╪═══════════╪════════════╪════════════╪════════════╡
│  30 │ 1.6/8.7   │ 5.8/2.0    │ 14.8/0.4   │ 31.0/0.1   │
╘═════╧═══════════╧════════════╧════════════╧════════════╛
Population size
╒═════╤═══════════╤════════════╤════════════╤════════════╕
│   n │ pop=n*5   │ pop=n*15   │ pop=n*30   │ pop=n*50   │
╞═════╪═══════════╪════════════╪════════════╪════════════╡
│  30 │ 1.6/8.7   │ 5.8/2.0    │ 14.8/0.4   │ 31.0/0.1   │
├─────┼───────────┼────────────┼────────────┼────────────┤
│  35 │ 2.1/8.9   │ 7.8/1.6    │ 20.2/0.4   │ 42.7/0.1   │
╘═════╧═══════════╧════════════╧════════════╧════════════╛
Population size
╒═════╤═══════════╤════════════╤════════════╤════════════╕
│   n │ pop=n*5   │ pop=n*15   │ pop=n*30   │ pop=n*50   │
╞═════╪═══════════╪════════════╪════════════╪════════════╡
│  30 │ 1.6/8.7   │ 5.8/2.0    │ 14.8/0.4   │ 31.0/0.1   │
├─────┼───────────┼────────────┼────────────┼────────────┤
│  35 │ 2.1/8.9   │ 7.8/1.6    │ 20.2/0.4   │ 42.7/0.1   │
├─────┼───────────┼────────────┼────────────┼────────────┤
│  40 │ 2.8/8.3   │ 10.3/2.2   │ 26.1/0.7   │ 56.3/0.3   │
╘═════╧═══════════╧════════════╧════════════╧════════════╛
Population size
╒═════╤═══════════╤════════════╤════════════╤════════════╕
│   n │ pop=n*5   │ pop=n*15   │ pop=n*30   │ pop=n*50   │
╞═════╪═══════════╪════════════╪════════════╪════════════╡
│  30 │ 1.6/8.7   │ 5.8/2.0    │ 14.8/0.4   │ 31.0/0.1   │
├─────┼───────────┼────────────┼────────────┼────────────┤
│  35 │ 2.1/8.9   │ 7.8/1.6    │ 20.2/0.4   │ 42.7/0.1   │
├─────┼───────────┼────────────┼────────────┼────────────┤
│  40 │ 2.8/8.3   │ 10.3/2.2   │ 26.1/0.7   │ 56.3/0.3   │
├─────┼───────────┼────────────┼────────────┼────────────┤
│  45 │ 3.4/9.5   │ 12.9/2.3   │ 33.2/0.9   │ 70.8/0.5   │
╘═════╧═══════════╧════════════╧════════════╧════════════╛
